<?xml version="1.0" encoding="UTF-8" standalone="no"?>
<!DOCTYPE svg PUBLIC "-//W3C//DTD SVG 1.1//EN"
 "http://www.w3.org/Graphics/SVG/1.1/DTD/svg11.dtd">
<!-- Generated by graphviz version 2.47.3 (20210619.1520)
 -->
<!-- Title: dependencies Pages: 1 -->
<svg width="880pt" height="174pt"
 viewBox="0.00 0.00 880.00 173.80" xmlns="http://www.w3.org/2000/svg" xmlns:xlink="http://www.w3.org/1999/xlink">
<g id="graph0" class="graph" transform="scale(1 1) rotate(0) translate(4 169.8)">
<title>dependencies</title>
<polygon fill="white" stroke="transparent" points="-4,4 -4,-169.8 876,-169.8 876,4 -4,4"/>
<text text-anchor="middle" x="436" y="-8.2" font-family="sans-serif" font-size="14.00">dependencies</text>
<g id="clust1" class="cluster">
<title>cluster_CatalogModule</title>
<polygon fill="none" stroke="black" stroke-dasharray="1,5" points="8,-32.8 8,-157.8 864,-157.8 864,-32.8 8,-32.8"/>
</g>
<g id="clust2" class="cluster">
<title>cluster_CatalogModule_declarations</title>
<polygon fill="none" stroke="black" points="188,-40.8 188,-92.8 856,-92.8 856,-40.8 188,-40.8"/>
</g>
<g id="clust7" class="cluster">
<title>cluster_CatalogModule_imports</title>
<polygon fill="none" stroke="black" points="16,-40.8 16,-92.8 180,-92.8 180,-40.8 16,-40.8"/>
</g>
<!-- CatalogComponent -->
<g id="node1" class="node">
<title>CatalogComponent</title>
<polygon fill="#ffffb3" stroke="black" points="848.38,-84.8 723.62,-84.8 723.62,-48.8 848.38,-48.8 848.38,-84.8"/>
<text text-anchor="middle" x="786" y="-62.6" font-family="Times,serif" font-size="14.00">CatalogComponent</text>
</g>
<!-- CatalogModule -->
<g id="node5" class="node">
<title>CatalogModule</title>
<polygon fill="#8dd3c7" stroke="black" points="510.6,-149.8 507.6,-153.8 486.6,-153.8 483.6,-149.8 407.4,-149.8 407.4,-113.8 510.6,-113.8 510.6,-149.8"/>
<text text-anchor="middle" x="459" y="-127.6" font-family="Times,serif" font-size="14.00">CatalogModule</text>
</g>
<!-- CatalogComponent&#45;&gt;CatalogModule -->
<g id="edge1" class="edge">
<title>CatalogComponent&#45;&gt;CatalogModule</title>
<path fill="none" stroke="black" d="M786,-85.08C786,-106.12 786,-137.8 786,-137.8 786,-137.8 520.81,-137.8 520.81,-137.8"/>
<polygon fill="black" stroke="black" points="520.81,-134.3 510.81,-137.8 520.81,-141.3 520.81,-134.3"/>
</g>
<!-- CatalogFormComponent -->
<g id="node2" class="node">
<title>CatalogFormComponent</title>
<polygon fill="#ffffb3" stroke="black" points="705.71,-84.8 550.29,-84.8 550.29,-48.8 705.71,-48.8 705.71,-84.8"/>
<text text-anchor="middle" x="628" y="-62.6" font-family="Times,serif" font-size="14.00">CatalogFormComponent</text>
</g>
<!-- CatalogFormComponent&#45;&gt;CatalogModule -->
<g id="edge2" class="edge">
<title>CatalogFormComponent&#45;&gt;CatalogModule</title>
<path fill="none" stroke="black" d="M628,-84.82C628,-102.17 628,-125.8 628,-125.8 628,-125.8 520.62,-125.8 520.62,-125.8"/>
<polygon fill="black" stroke="black" points="520.62,-122.3 510.62,-125.8 520.62,-129.3 520.62,-122.3"/>
</g>
<!-- CatalogListComponent -->
<g id="node3" class="node">
<title>CatalogListComponent</title>
<polygon fill="#ffffb3" stroke="black" points="532.16,-84.8 385.84,-84.8 385.84,-48.8 532.16,-48.8 532.16,-84.8"/>
<text text-anchor="middle" x="459" y="-62.6" font-family="Times,serif" font-size="14.00">CatalogListComponent</text>
</g>
<!-- CatalogListComponent&#45;&gt;CatalogModule -->
<g id="edge3" class="edge">
<title>CatalogListComponent&#45;&gt;CatalogModule</title>
<path fill="none" stroke="black" d="M459,-84.91C459,-84.91 459,-103.79 459,-103.79"/>
<polygon fill="black" stroke="black" points="455.5,-103.79 459,-113.79 462.5,-103.79 455.5,-103.79"/>
</g>
<!-- CatalogListItemComponent -->
<g id="node4" class="node">
<title>CatalogListItemComponent</title>
<polygon fill="#ffffb3" stroke="black" points="368.31,-84.8 195.69,-84.8 195.69,-48.8 368.31,-48.8 368.31,-84.8"/>
<text text-anchor="middle" x="282" y="-62.6" font-family="Times,serif" font-size="14.00">CatalogListItemComponent</text>
</g>
<!-- CatalogListItemComponent&#45;&gt;CatalogModule -->
<g id="edge4" class="edge">
<title>CatalogListItemComponent&#45;&gt;CatalogModule</title>
<path fill="none" stroke="black" d="M282,-84.82C282,-102.17 282,-125.8 282,-125.8 282,-125.8 397.33,-125.8 397.33,-125.8"/>
<polygon fill="black" stroke="black" points="397.33,-129.3 407.33,-125.8 397.33,-122.3 397.33,-129.3"/>
</g>
<!-- CatalogRoutingModule -->
<g id="node6" class="node">
<title>CatalogRoutingModule</title>
<polygon fill="#8dd3c7" stroke="black" points="172.21,-84.8 169.21,-88.8 148.21,-88.8 145.21,-84.8 23.79,-84.8 23.79,-48.8 172.21,-48.8 172.21,-84.8"/>
<text text-anchor="middle" x="98" y="-62.6" font-family="Times,serif" font-size="14.00">CatalogRoutingModule</text>
</g>
<!-- CatalogRoutingModule&#45;&gt;CatalogModule -->
<g id="edge5" class="edge">
<title>CatalogRoutingModule&#45;&gt;CatalogModule</title>
<path fill="none" stroke="black" d="M98,-85.08C98,-106.12 98,-137.8 98,-137.8 98,-137.8 397.28,-137.8 397.28,-137.8"/>
<polygon fill="black" stroke="black" points="397.28,-141.3 407.28,-137.8 397.28,-134.3 397.28,-141.3"/>
</g>
</g>
</svg>
